{
  "data": [
    {
      "prodCode": "",
      "description": "",
      "vendorId": 0,
      "productCategory": "Static",
      "productDepartment": "FIT"
    },
    {
      "prodCode": " LAGHBWSPA",
      "description": "LAGH BEST WESTERN LAGUNA BRISAS SPA",
      "vendorId": 2386,
      "productCategory": "Static",
      "productDepartment": "FIT"
    },
    {
      "prodCode": " SFEHLORDL",
      "description": "SFEH INN AND SPA AT LORETTO-DELUXE",
      "vendorId": 3096,
      "productCategory": "Static",
      "productDepartment": "FIT"
    },
    {
      "prodCode": " YVRHNTPVH",
      "description": "COMFORT SUITES HOOD RIVER",
      "vendorId": 6586,
      "productCategory": "Static",
      "productDepartment": "FIT"
    },
    {
      "prodCode": "AARHNTHAMP",
      "description": "HAMPTON INN ANN ARBOR-NORTH",
      "vendorId": 6888,
      "productCategory": "Static",
      "productDepartment": "FIT"
    },
    {
      "prodCode": "AARIUSSNT",
      "description": "AARIUS INTERNATIONAL INC",
      "vendorId": 17162,
      "productCategory": "Static",
      "productDepartment": "FIT"
    }
  ]
}